Managing Data in R
…
First off, we don't need a count of row numbers (R does this for us), so we can remove the X1 column. Let's do that now.

We'll use the `select()` function from dplyr in the tidyverse. 

This takes our data as an argument and any columns we want to select (keep) when named or given a column number. Nicely, we can also use the minus sign to say "keep everything except this".

```r
# select out the X1 column from our data, assign this to our new data
cleaned_data <- select(raw_data, -X1)

cleaned_data
```

```
## # A tibble: 2,400 x 6
##   subj_id list_id item_id A     B         Y
##   <chr>     <dbl>   <dbl> <chr> <chr> <dbl>
## 1 one           4       1 A2    B2     234.
## 2 one           4       2 A2    B2     295.
## 3 one           4       3 A2    B2     285.
## 4 one           4       4 A2    B2     258.
## # … with 2,396 more rows
```
…
