Managing Data in R
…
---
# Filter

Let's say we want to keep only observations from our first participant. This might be useful for exploring data individually.

```r
filter(data_a, subj_id == 4)
```

```
## # A tibble: 40 x 7
##     row subj_id list_id item_id A     B         Y
##   <dbl> <chr>     <dbl>   <dbl> <chr> <chr> <dbl>
## 1   121 4             4       1 A2    B2     222.
## 2   122 4             4       2 A2    B2     242.
## 3   123 4             4       3 A2    B2     251.
## 4   124 4             4       4 A2    B2     200.
## # … with 36 more rows
```
…
---
# Select

Imagine we only want to **keep the subject_id** column.

```r
select(data_a, subj_id)
```

```
## # A tibble: 1,040 x 1
##   subj_id
##   <chr>  
## 1 one    
## 2 one    
## 3 one    
## 4 one    
## # … with 1,036 more rows
```

---
# Select

Imagine we want to **remove the list_id column**. We simply put a minus before the column name.

```r
select(data_a, -list_id)
```

```
## # A tibble: 1,040 x 6
##     row subj_id item_id A     B         Y
##   <dbl> <chr>     <dbl> <chr> <chr> <dbl>
## 1     1 one           1 A2    B2     234.
## 2     2 one           2 A2    B2     295.
## 3     3 one           3 A2    B2     285.
## 4     4 one           4 A2    B2     258.
## # … with 1,036 more rows
```

---
# Select

Maybe we'd like to **reorganise our columns so columns A and B come first and everything else after**. Select A and B, and then everything else using `everything()`; a dplyr helper function.

```r
select(data_a, A, B, everything())
```

```
## # A tibble: 1,040 x 7
##   A     B       row subj_id list_id item_id     Y
##   <chr> <chr> <dbl> <chr>     <dbl>   <dbl> <dbl>
## 1 A2    B2        1 one           4       1  234.
## 2 A2    B2        2 one           4       2  295.
## 3 A2    B2        3 one           4       3  285.
## 4 A2    B2        4 one           4       4  258.
## # … with 1,036 more rows
```
…
---
# Mutate

With mutate we can **change the data within columns**, or **create new columns** of data entirely.

Let's create a new column. This will combine the text in columns A and B. We will use `paste()` to do this. The argument `sep = "+"` will add a plus between the entries.

```r
mutate(data_a, AB = paste(A, B, sep = "+"))
```

```
## # A tibble: 1,040 x 8
##     row subj_id list_id item_id A     B         Y AB   
##   <dbl> <chr>     <dbl>   <dbl> <chr> <chr> <dbl> <chr>
## 1     1 one           4       1 A2    B2     234. A2+B2
## 2     2 one           4       2 A2    B2     295. A2+B2
## 3     3 one           4       3 A2    B2     285. A2+B2
## 4     4 one           4       4 A2    B2     258. A2+B2
## # … with 1,036 more rows
```

---
# Mutate

Perhaps instead we want to **change the data in a column in place**? Let's get the natural logarithm on the scores in Y.

```r
mutate(data_a, Y = log(Y))
```

```
## # A tibble: 1,040 x 7
##     row subj_id list_id item_id A     B         Y
##   <dbl> <chr>     <dbl>   <dbl> <chr> <chr> <dbl>
## 1     1 one           4       1 A2    B2     5.45
## 2     2 one           4       2 A2    B2     5.69
## 3     3 one           4       3 A2    B2     5.65
## 4     4 one           4       4 A2    B2     5.55
## # … with 1,036 more rows
```
…
- Here, we'll we'll recode an item in the item_id column. Let's change item 1 to item 20.

```r
mutate(
  data_a, 
  item_id = case_when(
    item_id == 1 ~ 20,
    TRUE ~ item_id
  )
)
```

```
## # A tibble: 1,040 x 7
##     row subj_id list_id item_id A     B         Y
##   <dbl> <chr>     <dbl>   <dbl> <chr> <chr> <dbl>
## 1     1 one           4      20 A2    B2     234.
## 2     2 one           4       2 A2    B2     295.
## 3     3 one           4       3 A2    B2     285.
## 4     4 one           4       4 A2    B2     258.
## # … with 1,036 more rows
```
---
# Bind Rows

Our data is stored in two separate tables. Let's join them together using `bind_rows()`.

```r
# bind it together
combined_data <- bind_rows(data_a, data_b)

# print it out
combined_data
```

```
## # A tibble: 2,400 x 7
##     row subj_id list_id item_id A     B         Y
##   <dbl> <chr>     <dbl>   <dbl> <chr> <chr> <dbl>
## 1     1 one           4       1 A2    B2     234.
## 2     2 one           4       2 A2    B2     295.
## 3     3 one           4       3 A2    B2     285.
## 4     4 one           4       4 A2    B2     258.
## # … with 2,396 more rows
```
…
```r
# read the data
data_a <- read_csv(here("data", "factorial_data_a.csv"))
data_b <- read_csv(here("data", "factorial_data_b.csv"))

# combine the data
combined_data <- bind_rows(data_a, data_b)

# print it
combined_data
```

```
## # A tibble: 2,400 x 7
##     row subj_id list_id item_id A     B         Y
##   <dbl> <chr>     <dbl>   <dbl> <chr> <chr> <dbl>
## 1     1 one           4       1 A2    B2     234.
## 2     2 one           4       2 A2    B2     295.
## 3     3 one           4       3 A2    B2     285.
## 4     4 one           4       4 A2    B2     258.
## # … with 2,396 more rows
```
…
---
# Fixing Remaining Problems

Finally, we can't have negative reaction times. Let's remove any reaction times below 100ms under the assumption they're far too quick for this task.

```r
# filter only to RTs above 100ms
combined_data <- filter(combined_data, Y > 100)

# inspect it
combined_data
```

```
## # A tibble: 2,349 x 7
##     row subj_id list_id item_id A     B         Y
##   <dbl>   <dbl>   <dbl>   <dbl> <chr> <chr> <dbl>
## 1     1       1       4       1 a2    b2     234.
## 2     2       1       4       2 a2    b2     295.
## 3     3       1       4       3 a2    b2     285.
## 4     4       1       4       4 a2    b2     258.
## # … with 2,345 more rows
```
…
