Managing Data in R
…
```r
# read the data
data_a <- read_csv(here("data", "factorial_data_a.csv"))
data_b <- read_csv(here("data", "factorial_data_b.csv"))

# combine the data
combined_data <- bind_rows(data_a, data_b)

# print it
combined_data
```

```
## # A tibble: 2,400 x 7
##     row subj_id list_id item_id A     B         Y
##   <dbl> <chr>     <dbl>   <dbl> <chr> <chr> <dbl>
## 1     1 one           4       1 A2    B2     234.
## 2     2 one           4       2 A2    B2     295.
## 3     3 one           4       3 A2    B2     285.
## 4     4 one           4       4 A2    B2     258.
## # … with 2,396 more rows
```
…
---
# Fixing Remaining Problems

Finally, we can't have negative reaction times. Let's remove any reaction times below 100ms under the assumption they're far too quick for this task.

```r
# filter only to RTs above 100ms
combined_data <- filter(combined_data, Y > 100)

# inspect it
combined_data
```

```
## # A tibble: 2,349 x 7
##     row subj_id list_id item_id A     B         Y
##   <dbl>   <dbl>   <dbl>   <dbl> <chr> <chr> <dbl>
## 1     1       1       4       1 a2    b2     234.
## 2     2       1       4       2 a2    b2     295.
## 3     3       1       4       3 a2    b2     285.
## 4     4       1       4       4 a2    b2     258.
## # … with 2,345 more rows
```
…
