Managing Data in R
…
---
# Filter

Let's say we want to keep only observations from our first participant. This might be useful for exploring data individually.

```r
filter(cleaned_data, subj_id == 1)
```

```
## # A tibble: 40 x 6
##   subj_id list_id item_id A     B         Y
##     <dbl>   <dbl>   <dbl> <chr> <chr> <dbl>
## 1       1       4       1 a2    b2     234.
## 2       1       4       2 a2    b2     295.
## 3       1       4       3 a2    b2     285.
## 4       1       4       4 a2    b2     258.
## # … with 36 more rows
```
…
---
# Select

Imagine we only want to keep the subject_ids.

```r
select(cleaned_data, subj_id)
```

```
## # A tibble: 2,400 x 1
##   subj_id
##     <dbl>
## 1       1
## 2       1
## 3       1
## 4       1
## # … with 2,396 more rows
```

---
# Select

Imagine we decide that we no longer care about the list_id. We simply put a minus before the column name.

```r
select(cleaned_data, -list_id)
```

```
## # A tibble: 2,400 x 5
##   subj_id item_id A     B         Y
##     <dbl>   <dbl> <chr> <chr> <dbl>
## 1       1       1 a2    b2     234.
## 2       1       2 a2    b2     295.
## 3       1       3 a2    b2     285.
## 4       1       4 a2    b2     258.
## # … with 2,396 more rows
```

---
# Select

Maybe we'd like to reorganise our columns so condition comes first and everything else after. We have to tell select we want A and B, and then everything else using `everything()`; a dplyr helper function

```r
select(cleaned_data, A, B, everything())
```

```
## # A tibble: 2,400 x 6
##   A     B     subj_id list_id item_id     Y
##   <chr> <chr>   <dbl>   <dbl>   <dbl> <dbl>
## 1 a2    b2          1       4       1  234.
## 2 a2    b2          1       4       2  295.
## 3 a2    b2          1       4       3  285.
## 4 a2    b2          1       4       4  258.
## # … with 2,396 more rows
```
…
---
# Mutate

With mutate, we can change our data in place. This means we can change the data within columns, or create new columns of data entirely.

Let's create a new column. We might want to make a column which combines the strings of columns A and B. We'll use the paste function to do this, telling R to paste together strings from cells in columns A and B, and include a + sign between them.

```r
mutate(cleaned_data, AB = paste(A, B, sep = "+"))
```

```
## # A tibble: 2,400 x 7
##   subj_id list_id item_id A     B         Y AB   
##     <dbl>   <dbl>   <dbl> <chr> <chr> <dbl> <chr>
## 1       1       4       1 a2    b2     234. a2+b2
## 2       1       4       2 a2    b2     295. a2+b2
## 3       1       4       3 a2    b2     285. a2+b2
## 4       1       4       4 a2    b2     258. a2+b2
## # … with 2,396 more rows
```

---
# Mutate

Perhaps instead we want to change the data in a column in place? Let's multiply the scores for Y by 100.

```r
mutate(cleaned_data, Y = Y*100)
```

```
## # A tibble: 2,400 x 6
##   subj_id list_id item_id A     B          Y
##     <dbl>   <dbl>   <dbl> <chr> <chr>  <dbl>
## 1       1       4       1 a2    b2    23351.
## 2       1       4       2 a2    b2    29467.
## 3       1       4       3 a2    b2    28462.
## 4       1       4       4 a2    b2    25798.
## # … with 2,396 more rows
```
…
Or we can use cases instead to change only specific values.

```r
mutate(
  cleaned_data, 
  item_id = case_when(
    item_id == 1 ~ 20,
    TRUE ~ item_id
  )
)
```

```
## # A tibble: 2,400 x 6
##   subj_id list_id item_id A     B         Y
##     <dbl>   <dbl>   <dbl> <chr> <chr> <dbl>
## 1       1       4      20 a2    b2     234.
## 2       1       4       2 a2    b2     295.
## 3       1       4       3 a2    b2     285.
## 4       1       4       4 a2    b2     258.
## # … with 2,396 more rows
```
…
