Summarising and Plotting Data in R
…
- **Reproducibility**: Allows others (and future you) to check work and inspect methods at every step. You'll make science more reliable!

---
# Summarise

Let's take a look at the inbuilt `starwars` data set in the `tidyverse` pacakage.

```r
data(starwars) # load the data from within the package
starwars # print it
```

```
## # A tibble: 87 x 14
##   name    height  mass hair_color skin_color  eye_color birth_year sex   gender  homeworld species films vehicles starships
##   <chr>    <int> <dbl> <chr>      <chr>       <chr>          <dbl> <chr> <chr>   <chr>     <chr>   <lis> <list>   <list>   
## 1 Luke S…    172    77 blond      fair        blue              19 male  mascul… Tatooine  Human   <chr… <chr [2… <chr [2]>
## 2 C-3PO      167    75 <NA>       gold        yellow           112 none  mascul… Tatooine  Droid   <chr… <chr [0… <chr [0]>
## 3 R2-D2       96    32 <NA>       white, blue red               33 none  mascul… Naboo     Droid   <chr… <chr [0… <chr [0]>
## # … with 84 more rows
```
…
Within `group_by()`, we again specify our data, but also give a column by which to separate the summaries.

```r
summarise(
  group_by(starwars, species), 
  mean_height = mean(height, na.rm = TRUE)
)
```

```
## `summarise()` ungrouping output (override with `.groups` argument)
```

```
## # A tibble: 38 x 2
##   species  mean_height
##   <chr>          <dbl>
## 1 Aleena            79
## 2 Besalisk         198
## 3 Cerean           198
## # … with 35 more rows
```
…
The pipe in R (`%>%`) passes data from one function to another.

```r
starwars %>% 
  group_by(species) %>% 
  summarise(mean_height = mean(height, na.rm = TRUE))
```

```
## `summarise()` ungrouping output (override with `.groups` argument)
```

```
## # A tibble: 38 x 2
##   species  mean_height
##   <chr>          <dbl>
## 1 Aleena            79
## 2 Besalisk         198
## 3 Cerean           198
## # … with 35 more rows
```
…
```
## `summarise()` regrouping output by 'species' (override with `.groups` argument)
```

```
## # A tibble: 51 x 5
## # Groups:   species [38]
##   species  eye_color     n    sd mean_height
##   <chr>    <chr>     <int> <dbl>       <dbl>
## 1 Aleena   unknown       1    NA          79
## 2 Besalisk yellow        1    NA         198
## 3 Cerean   yellow        1    NA         198
## # … with 48 more rows
```
…
