Summarising and Plotting Data in R
…
# Data Visualisation

What's a better way to summarise the relationship between height and mass in our star wars data set?

Note below I excluded Jabba the Hutt who is **short and massive**.

.pull-left[

We could report a correlation and some averages, though that's going to be hard to picture.

```
## # A tibble: 31 x 3
##   species  mean_height mean_weight
##   <chr>          <dbl>       <dbl>
## 1 Aleena            79          15
## 2 Besalisk         198         102
## 3 Cerean           198          82
## 4 Clawdite         168          55
## # … with 27 more rows
```
…
