Summarising and Plotting Data in R
…
- As we can see, the data set contains **very many species** of creates from the Star Wars universe. What if we want summaries of all of them?

- We can add an argument to our data in `summarise()` called `group_by()`.

- Within `group_by()`, we specify our data but also give a column by which to **group the summaries**.

```r
summarise(
  group_by(starwars, species), 
  mean_height = mean(height, na.rm = TRUE)
)
```

```
## # A tibble: 38 x 2
##   species  mean_height
##   <chr>          <dbl>
## 1 Aleena            79
## 2 Besalisk         198
## 3 Cerean           198
## # … with 35 more rows
```
…
- So far, I've avoided showing you some R magic so you get the principles of functions. But R has a way to make code a lot more readable: the pipe!

- The pipe in R (`%>%`) **passes data from one function to another**.

```r
starwars %>% 
  group_by(species) %>% 
  summarise(mean_height = mean(height, na.rm = TRUE))
```

```
## # A tibble: 38 x 2
##   species  mean_height
##   <chr>          <dbl>
## 1 Aleena            79
## 2 Besalisk         198
## 3 Cerean           198
## # … with 35 more rows
```
…
# Visualising Data

---
# Data Visualisation

What's a better way to summarise the relationship between height and mass in our star wars data set?

.pull-left[

We could report a correlation and **some averages**, though that's going to be hard to picture.

```
## # A tibble: 31 x 3
##   species  mean_height mean_weight
##   <chr>          <dbl>       <dbl>
## 1 Aleena            79          15
## 2 Besalisk         198         102
## 3 Cerean           198          82
## # … with 28 more rows
```
…
